"VIN","Name","City/State","Country","Status","Employees","Products","Comments"
 5 (NA), Flat Rock Assembly Plant," Flat Rock, Michigan", USA, Open," 2,621", Ford Mustang<br /> Ford Fusion, Built at site of closed Ford Michigan Casting Center
, AutoAlliance Thailand, Pleukdang, Thailand, Open," 3,618", Ford Fiesta<br /> Ford Ranger (T6)<br /> Ford Ranger (J97)<br /> Ford Everest<br /> Mazda 2<br / > Mazda 3<br / > Mazda BT-50 (T6)<br /> Mazda BT-50 (J97),
, Ford Romania, Craiova, Romania, Open," 3,600", Ford Transit Connect<br /> Ford B-MAX (2012),
 P (EU), Azambuja Assembly, Azambuja, Portugal,,, Ford Fiesta<br /> Ford Focus<br /> Ford Mondeo,
, Bahia Plant," Camaçari, Bahia", Brazil,,, Ford Ka<br /> Ford Ka+<br /> Ford EcoSport /> Ford Fox Engine, Plant opened in 2001<br /> Scheduled to begin production for US market in 2009
 V (NA), Blue Diamond Truck," Escobedo General, Nuevo León", Mexico,,, Ford F-650<br /> Ford F-750<br /> Ford LCF, Commercial truck joint venture with Navistar
, Bordeaux Transaxle, Blanquefort, France, Open, 947, Ford IB transmission,
, Bridgend Engine, Bridgend, Wales, Open," 2,013", Ford Zetec engine<br /> Jaguar AJ-V8 engine,
 JG JL (AU), Broadmeadows Assembly," Campbellfield, Victoria", Australia," To be closed Oct 2016<ref>{{cite news|title=Ford Australia to close Broadmeadows and Geelong plants, 1,200 jobs to go|url=http://www.abc.net.au/news/2013-05-23/ford-to-close-geelong-and-broadmeadows-plants/4707960|work=abc.net.au|accessdate=25 May 2013}}</ref>"," 2,088", Ford Falcon<br /> Ford Falcon Ute<br /> Ford Territory,
, Buffalo Stamping," Buffalo, New York", USA, Open, 823," Quarter Panels, Body Sides, Rear Floor Pan, Rear Doors, Roofs, front doors, hoods",
 J (EU), Ford Valencia Plant|Valencia Body and Assembly, Valencia, Spain, Open," 6,180", Ford Kuga<br /> Ford Transit Connect<br /> Ford Mondeo<br />Ford S-max<br /> Ford Galaxy,
 , Valencia Assembly, Valencia, Venezuela, Open," 1,797", Ford Fiesta<br /> Ford Explorer<br /> Ford F-350<br /> Ford F-250<br /> Ford Cargo ," Plant opened in 1962. serves Ford markets in Colombia, Ecuador and Venezuela. "
, Changan Ford Mazda Engine Co., Nanjing, China,, 700, BZ series engine," Joint Venture: Chongqing Changan Automobile Co., Ltd. (50%). Ford Motor Company (25%), Mazda Motor Company (25%)"
 G (NA), Chicago Assembly," Chicago, Illinois", USA, Open," 4,099", Ford Taurus<br /> Lincoln MKS <br /> Ford Explorer (Late 2010),
, Chicago Stamping," Chicago Heights, Illinois", USA, Open, 781,,
, Chihuahua Engine," Chihuahua, Chihuahua", Mexico, Open, 690," Duratec I4 <br />4,4L and 6,7L V8 Diesel", Zetec engine (Discontinued)
, Cleveland Engine #1," Brook Park, Ohio", USA, Reopened (2004),, Duratec 30<br /> Duratec 35, Idled from May 2007 to May 2008
, Cleveland Engine #2," Brook Park, Ohio", USA, Open, 813, Duratec 25<br /> Duratec 30<br /> RFF and DAMB,
 A (EU), Cologne Body & Assembly, Cologne, Germany, Open," 4,141", Ford Fiesta<br /> Ford Fusion,
, Cologne Engine, Cologne, Germany, Open," 1,008", Cologne V6,
, Cologne Forge and Die Cast, Cologne, Germany,,, parts,
, Cologne Tool and Die, Cologne, Germany, Open," 1,144", equipment,
, Cologne Transmission, Cologne, Germany, Open," 1,590", Ford MTX transmission<br /> Ford VXT transmission,
, Croydon Stamping, Croydon, England,,, parts,
 M (NA), Cuautitlán Assembly, Cuautitlán-Izcalli, Mexico,,, Ford Fiesta,
, Ford Dagenham|Dagenham Engine, Dagenham, England, Open," 2,047", Ford Duratorq engine<br /> Ford Duratec 20<br /> Ford Duratec 23,
, Ford Dagenham|Dagenham Stamping, Dagenham, England, To close (2013)<ref>{{cite news|title=End of an era|url=http://www.bbc.co.uk/news/uk-england-20078108|work=BBC News|accessdate=26 October 2012}}</ref>," 1,084",,
, Ford Dagenham|Dagenham Tool & Die, Dagenham, England,,, equipment,
, Ford River Rouge Complex|Dearborn Engine," Dearborn, Michigan", USA, Open, 911, Ford Duratec 20<br /> Ford Duratec 23, River Rouge Plant
, Ford River Rouge Complex|Dearborn Stamping," Dearborn, Michigan", USA, Open, 588," Frames, Truck Axles, Suspension Parts, Tire and Wheel",
 F (NA), Dearborn Truck," Dearborn, Michigan", USA, Open,, Ford F-150 and Mustang, Originally called Dearborn Assembly Plant until production changed over from Mustang to F-150 in MY2005.
, Ford Renaissance Global Logistics," Detroit, Michigan", USA,,,,
, Essex Engine," Windsor, Ontario", Canada, Reopened (2009),, Ford Triton engine<br /> Ford Essex V6 engine," Idled in November 2007, reopened February 2009"
," Ford India| Ford India, Ltd."," Chennai, Tamil Nadu", India, Open," 2,100", Ford Endeavour<br /> Ford Fiesta<br /> Ford Figo<br /> EcoSport,
, Ford India|Sanand Vehicle Assembly Plant," Sanand, Gujarat", India, To Open<br />(2015), , ,
, Ford India|Sanand Engine Plant," Sanand, Gujarat", India, To Open<br />(2015), , ,
, Ford Lio Ho|Ford Lio Ho Assembly, Chung Li, Taiwan, Open," 2,332", Ford Econovan<br /> Ford Fiesta<br /> Ford Mondeo<br /> Ford Pronto<br /> Ford Tierra<br /> Mazda 323<br /> Mazda Bongo,
, Ford Lio Ho|Ford Lio Ho Engine, Chung Li, Taiwan, Open," 2,332", Ford Zetec engine,
, Ford Malaysia Sdn. Bhd, Selangor, Malaysia, Open, 705, Ford Laser<br /> Ford Telstar<br /> Ford Ranger<br /> Ford Econovan<br /> Ford Transit<br /> Ford Trader<br /> BMW<br /> Land Rover Discovery,
, Ford Motor Company of South Africa, Port Elizabeth, South Africa, Open, 815, Ford PTE engine<br /> Zetec ROCAM,
," Ford Motor Company of Southern Africa, Ltd.", Silverton, South Africa, Open," 3,762", Ford Bantam<br /> Ford Fiesta<br /> Ford Tracer<br /> Ford Ikon<br /> Ford Ranger<br /> Mazda SOHO<br /> Mazda Etude<br /> Mazda Rustler<br /> Volvo S40<br /> Volvo V40<br /> Mitsubishi<br /> Canter<br /> Land Rover<br /> Jaguar,
, Ford Motor Company Philippines," Santa Rosa, Laguna", Philippines, Closed (December 2012), 719, Lynx<br /> Ford Tierra<br /> Ford Focus<br /> Mazda 323<br /> Ford Escape<br /> Mazda Tribute<br />,
, Ford Motor Company ZAO, St. Petersburg, Russia, Open," 1,571", Ford Focus<br /> Ford Mondeo,
, Otosan|Ford Otosan Assembly, Kocaeli, Turkey, Open," 7,534", Ford Transit<br /> Ford Transit Connect, Transit Connect starts shipping to US in Fall of 2009
, Otosan|Ford Otosan Engine, Eskisehir, Turkey, Open," 1,608", Ford MT75 transmission for Transit<br /> Ford Puma engine<<br /> Ford Cargo truck<br /> Ford Rear Axle for Transit,
, Geelong Aluminum Casting," Norlane, Victoria", Australia,,, engine parts,
, Geelong Chassis," Norlane, Victoria", Australia,,, parts,
, Geelong Engine," Norlane, Victoria", Australia, Open, 644, I6 engines,
, Geelong Iron Casting," Norlane, Victoria", Australia,,, I6 engines,
, Geelong Stamping," Norlane, Victoria", Australia, Open," 1,152", Ford Falcon body panels<br /> Ford Focus body panels (2011),
, Getrag Ford Transmission, Liverpool, England, Open, 731," MT82 Transmission, IB5 transaxle, MT75 Transmission, PTO Transmissions",
 B (EU), Genk Body & Assembly, Genk, Belgium, To Close (2014)," 4,600", Ford Mondeo<br /> Ford S-MAX<br /> Ford Galaxy,
," Hai Duong Assembly, Ford Vietnam, Ltd.", Hai Duong, Vietnam,,, Ford Laser<br /> Ford Transit<br /> Ford Ranger<br /> Ford Escape<br /> Ford Mondeo<br /> Ford Focus<br />Ford Everest,
, Halewood Transmission, Halewood, England,,, Ford MT-75 transmission<br /> Ford IB5 transmission,
 R (NA), Hermosillo Stamping & Assembly," Hermosillo, Sonora", Mexico, Open,, Ford Fusion<br /> Lincoln MKZ<br />,
, IMMSA," Monterrey, Nuevo Len", Mexico,,,,
 A (EU), Ipiranga Assembly," Ipiranga,São Paulo ", Brazil,,,,
," Jiangling Motors Corp., Ltd."," Nanchang, Jianxi", China, Open," 7,258", Ford Transit<br /> Isuzu," Partnership with Jiangling Motors|Jiangling Motors Co., Ltd"
 K (NA), Kansas City Assembly," Claycomo, Missouri", USA, Open," 4,684", Ford F-150<br /> Ford Transit
, Kechnec Transmission," Kechnec, Kosice", Slovakia,,, Ford MPS6 transmissions<br /> Ford SPS6 transmissions," Ford/Getrag dual clutch transmission ""Powershift"", (Getrag Ford Transmissions)"
 E (NA), Kentucky Truck Assembly," Louisville, Kentucky", USA, Open," 5,154", Ford Super Duty<br /> Ford Expedition <br/> Lincoln Navigator,
, Lima Engine," Lima, Ohio", USA, Open, 730, Vulcan V6<br /> Jaguar AJ35<br /> Duratec 35,
, Livonia Transmission," Livonia, Michigan", USA, Open," 1,849",  Ford 6R transmission|6R,
 U (NA), Louisville Assembly Plant," Louisville, Kentucky", USA, Open," 4,500", Ford Escape 2013  ," Reopened in 2012.4.4 and building the Ford Kuga for European markets, Ford Escape for North American markets and the Kuga/Escape platform-derived Lincoln MKC. "
, Metcon Casting, Santa Fe Province, Argentina,,, parts,
 L (NA), Michigan Assembly Plant," Wayne, Michigan", USA, Open,, 2012 Ford Focus (North America)|Ford Focus and a Lincoln variant is expected also.
 S (NA), Ford Pilot Plant|New Model Programs Development Center," Allen Park, Michigan", USA,,,," Commonly known as ""Pilot Plant"" Opened 1958"
 B (NA), Oakville Assembly," Oakville, Ontario", Canada, Open," 3,820", Lincoln MKX<br /> Ford Edge<br /> Ford Flex<br /> Lincoln MKT, Opened 1953
 D (NA), Ohio Assembly," Avon Lake, Ohio", USA, Open," 1,821", Ford Econoline," Opened 1974, previously a Fruehauf truck trailer plant."
, Pacheco Stamping & Assembly, Buenos Aires, Argentina, Open," 2,123", Ford Ranger<br />Ford Focus, Formerly Ford F100<br /> Falcon (1962 to 1991)<br /> Taunus<br /> Sierra<br /> Escort<br /> Fairlane
, Rawsonville Parts," Ypsilanti, Michigan", USA,,, Integrated Air/Fuel Modules<br /> Alternators<br /> Air Induction Systems<br /> Starters<br /> Fuel Pumps<br /> Carbon Canisters, Returned to Ford Motor Company from Visteon in 2005 after landmark deal with UAW
, Romeo Engine," Romeo, Michigan", USA, Open," 1,160", Ford Intech engine<br /> Ford Triton engine,
 K (EU), Rheine Assembly, Rheine, Germany,,,,
 C (EU), Saarlouis Body & Assembly, Saarlouis, Germany, Open," 1,276", Ford Focus<br /> Ford Kuga, Opened January 1970
 B (EU), Sao Bernardo Assembly, Sao Bernardo do Campo, Brazil,,, Ford Fiesta<br /> Ford Cargo Series ,
, Sharonville Transmission," Sharonville, Ohio", USA, Open," 1,478", Ford 4R70W transmission<br /> Ford 4R100 transmission<br /> Ford 5R110W transmission<br /> Ford 5R55S transmission<br /> Ford CD4E transmission<br /> Ford FN transmission,
, Sterling Axle," Sterling Heights, Michigan", USA, Open,, Front Axles<br /> Rear Axles<br /> Gears,
 S (EU), Setubal Assembly, Setubal, Portugal,,,,
, Swedish Motor Assembly, Kuala Lumpur, Malaysia, Open, 468, Volvo Cars,
, Taubate Chassis," Taubate, São Paulo", Brazil,,, Ford Sigma engine,
, Tekfor Cologne GmbH, Cologne, Germany,, 352, Steel forgings, Joint Venture: 50% Ford; 50% Neumayer
, Thai-Swedish Assembly Co. Ltd., Samutprakarn, Thailand,,,,
 P (EU), Valencia Assembly, Valencia, Venezuela,,, Ford Explorer<br /> Ford Fiesta<br /> Ford Laser<br /> Ford Ranger<br /> Ford F-Series<br /> Mazda Allegro<br /> Mazda B-Series,
, Ford Valencia Plant|Valencia Body & Assembly, Valencia, Spain,,, Ford Focus<br /> Ford Ka<br /> Ford Fiesta<br /> Mazda Mazda2<br /> Ford C-Max,
, Valencia Engine, Valencia, Spain, Open, 1000, Ford Duratec HE<br /> Ford Ecoboost 2.0L ,
, Van Dyke Transmission Plant," Sterling Heights, Michigan", USA, Open," 1,260", Ford AX4N transmission<br /> Ford FN transmission<br /> Ford 6F transmission,
, Walton Hills Stamping," Walton Hills, Ohio", USA,Closed Winter 2014, 607, Body panels,
 W (NA), Wayne Stamping & Assembly," Wayne, Michigan", USA,,, Ford Focus (NA) Ford Focus (Int'l in 2011)<br /> Ford C-MAX (2011),
, Windsor Engine," Windsor, Ontario", Canada, Open," 1,850", Ford Modular engine 4.6 and 5.4<br /> Ford Triton engine V10,
, Woodhaven Forging," Woodhaven, Michigan", USA,,, Ford Modular engine 5.4 parts<br /> Ford Triton engine V10 parts,
, Woodhaven Stamping," Woodhaven, Michigan", USA, Open," 1,359", Body panels,

