{
    "start_time"   : 0.0,
    "monthly_end"  : 1427846400.0,

    "daily_start"  : 1409529600.0,
    "daily_end"    : 1409616000.0,

    "hourly_start" : 1417460400.0,
    "hourly_end"   : 1417464000.0,

    "start": {
        "min"  : "2014-09-01",
        "max"  : "2014-10-01",
        "rate" : 0,
        "value": "2014-09-02"
    },

    "healthy_historic": {
        "min"  : "2014-09-01",
        "max"  : "2014-09-30",
        "rate" : 0,
        "value": "2014-09-02"
    },

    "ok_health_historic": {
        "min"  : "2014-10-01",
        "max"  : "2014-10-31",
        "rate" : 0,
        "value": "2014-10-02"
    },

    "ports": {
        "min"  : "2014-11-01",
        "max"  : "2014-12-15",
        "rate" : 0,
        "value": "2014-12-14"
    },

    "ports_historical_fast_rate": {
        "min"  : "2014-11-01",
        "max"  : "2014-12-15",
        "rate" : 230400,
        "value": "2014-11-10"
    },

    "supply_chain": {
        "min"  : "2014-11-01",
        "max"  : "2014-12-15",
        "rate" : 0,
        "value": "2014-11-17"
    },

    "supply_chain_forecast_fast_rate": {
        "min"  : "2014-11-01",
        "max"  : "2014-12-15",
        "rate" : 172800,
        "value": "2014-11-17"
    },

    "planning": {
        "min"  : "2014-11-01",
        "max"  : "2014-12-15",
        "rate" : 0,
        "comment": "1418601599 is 2014-12-14 23:59:59",
        "value": 1418601599
    },

    "store_stock_fast_rate": {
        "min"  : "2014-12-01",
        "max"  : "2014-12-15",
        "rate" : 86400,
        "value": "2014-12-03"
    },

    "store": {
        "min"  : 1417460400.0,
        "max"  : 1417464000.0,
        "rate" : 1.0,
        "value": 1417462200.0
    },

    "resolution": {
        "min"  : "2014-12-10",
        "max"  : "2014-12-30",
        "rate" : 0,
        "value": "2014-12-14"
    },

    "resolution_fast_rate": {
        "min"  : "2014-12-10",
        "max"  : "2014-12-30",
        "rate" : 86400,
        "value": "2014-12-15"
    },

    "_comment":"min/max/value only accept dates now - FF and Chrome parse dates with times different :(",
    "_comment":"any changes here should are needed by the runner's demo_time.json"
}

