Name,City,State,Country,Lat,Lon,p1,p2
N.V. Bekaert S.A.,Kortrijk,Vlaams Gewest,Belgium,50.81948939999999,3.2577076,"ANTWERPEN, BE","ROTTERDAM, NL"
Recticel N.V./S.A.,Evere,Brussel,Belgium,50.87036879999999,4.4059682,"ANTWERPEN, BE","ROTTERDAM, NL"
Bosal International N.V.,Lummen,Vlaams Gewest,Belgium,50.98839419999999,5.2399137,"ANTWERPEN, BE","ROTTERDAM, NL"
Linamar Corporation,Guelph,ON,Canada,43.5476196,-80.28578949999999,"MONTREAL, CA",
Woodbridge Foam Corporation,Mississauga,ON,Canada,43.6001485,-79.64021029999999,"MONTREAL, CA",
"ABC Group, Inc.",Toronto,ON,Canada,43.7602404,-79.53273829999999,"MONTREAL, CA",
Martinrea International Inc.,Vaughan,ON,Canada,43.8120434,-79.533472,"MONTREAL, CA",
Magna International Inc.,Aurora,ON,Canada,44.00574,-79.4318942,"MONTREAL, CA",
"Guangzhou Automobile Group Component Co., Ltd.",Guangzhou,Guangdong,China,23.1355773,113.2769273,"HONG KONG, HK","SHANGHAI, CN"
"Kunming Yunnei Power Co., Ltd.",Kunming,Yunnan,China,25.0665697,102.7262348,"HONG KONG, HK","SHANGHAI, CN"
"Guizhou Guihang Automotive Components Co., Ltd.",Guiyang,Guizhou,China,26.575802,106.711074,"HONG KONG, HK","SHANGHAI, CN"
"Hunan Jiangnan Red Arrow Co., Ltd.(Formerly  Chengdu Galaxy Power Co., Ltd.)",Xiangtan,Hunan,China,27.829738,112.944049,"HONG KONG, HK","SHANGHAI, CN"
"Ningbo Huaxiang Electronic Co., Ltd.",Ningbo,Zhejiang,China,29.4783004,121.8688457,"SHANGHAI, CN","HONG KONG, HK"
Ningbo Joyson Electronic Corporation,Ningbo,Zhejiang,China,29.8615905,121.5513089,"SHANGHAI, CN","HONG KONG, HK"
Minth Group Limited.,Ningbo,Zhejiang,China,29.9125641,121.8396099,"SHANGHAI, CN","HONG KONG, HK"
"Wanxiang Qianchao Co., Ltd.",Hangzhou,Zhejiang,China,30.2134542,120.2688975,"SHANGHAI, CN","HONG KONG, HK"
"Anqing Huanxin Group Co., Ltd.",Anqing,Anhui,China,30.5337372,117.0614964,"SHANGHAI, CN","HONG KONG, HK"
"Shanghai GKN Drive System Co., Ltd.",Shanghai,Shanghai,China,31.0689606,121.6473955,"SHANGHAI, CN","HONG KONG, HK"
"Shanghai SIIC Transportation Electric Co., Ltd. (STEC)",Shanghai,Shanghai,China,31.1962454,121.440554,"SHANGHAI, CN","HONG KONG, HK"
HUAYU Automotive Systems Company Limited,Shanghai,Shanghai,China,31.2349882,121.4546496,"SHANGHAI, CN","HONG KONG, HK"
"Dongfeng Electronic Technology Co., Ltd. (DETC)",Shanghai,Shanghai,China,31.2366094,121.415775,"SHANGHAI, CN","HONG KONG, HK"
"Shanghai Jiao Yun Group Co., Ltd.",Shanghai,Shanghai,China,31.2515193,121.4591522,"SHANGHAI, CN","HONG KONG, HK"
"Shanghai Feilo Co., Ltd.",Shanghai,Shanghai,China,31.2776335,121.4453453,"SHANGHAI, CN","HONG KONG, HK"
"FAW Jiefang Automotive Co., Ltd. Wuxi Diesel Engine Works",Wuxi,Jiangsu,China,31.49117,120.31191,"SHANGHAI, CN","HONG KONG, HK"
"Weifu High-Technology Group Co., Ltd.",Wuxi,Jiangsu,China,31.5726232,120.2867828,"SHANGHAI, CN","QINGDAO GANG, CN"
"Jiangnan Mould &amp; Plastic Technology Co., Ltd.",Wuxi,Jiangsu,China,31.8609329,120.4100407,"SHANGHAI, CN","QINGDAO GANG, CN"
"Xiangyang Automobile Bearing Co., Ltd.",Xiangyang,Hubei,China,32.010822,112.1541621,"SHANGHAI, CN","QINGDAO GANG, CN"
"Camel Group Co., Ltd.",Xiangyang,Hubei,China,32.276701,111.4630657,"SHANGHAI, CN","QINGDAO GANG, CN"
"Dongfeng Motor Parts And Components Group Co., Ltd.",Shiyan,Hubei,China,32.6365161,110.7595323,"SHANGHAI, CN","QINGDAO GANG, CN"
Shaanxi Fast Auto Drive Group Company,Xi'an,Shaanxi,China,34.2568512,108.8762365,"QINGDAO GANG, CN","SHANGHAI, CN"
China Auto Electronics Group Limited (THB Group),Hebi,Henan,China,35.747225,114.297273,"QINGDAO GANG, CN","SHANGHAI, CN"
"Weichai Power Co., Ltd.",Weifang,Shandong,China,36.706774,119.161756,"QINGDAO GANG, CN","TIANJIN XIN GANG, CN"
"Lingyun Industrial Co., Ltd.",Baoding,Hebei,China,39.4085986,115.9295089,"TIANJIN XIN GANG, CN","QINGDAO GANG, CN"
"Beijing Hainachuan Automotive Parts Co., Ltd.",Beijing,Beijing,China,39.8929871,116.4737292,"TIANJIN XIN GANG, CN","DALIAN, CN"
ASIMCO Technologies Limited,Beijing,Beijing,China,39.9611712,116.4683526,"TIANJIN XIN GANG, CN","DALIAN, CN"
"Liaoning SG Automotive Group Co., Ltd.",Dandong,Liaoning,China,40.1539195,124.4074707,"DALIAN, CN","TIANJIN XIN GANG, CN"
"Changchun Yidong Clutch Co., Ltd.",Changchun,Jilin,China,43.8502307,125.1834387,"DALIAN, CN","TIANJIN XIN GANG, CN"
Fawer Automotive Parts Limited Company,Changchun,Jilin,China,43.8806229,125.2573,"DALIAN, CN","TIANJIN XIN GANG, CN"
"Changchun Faway Automobile Components Co., Ltd.",Changchun,Jilin,China,43.8850253,125.2125389,"DALIAN, CN","TIANJIN XIN GANG, CN"
"Harbin Dongan Auto Engine Co., Ltd.",Haerbin,Heilongjiang,China,45.5914596,126.6452469,"DALIAN, CN","TIANJIN XIN GANG, CN"
"Shandong Binzhou Bohai Piston Co., Ltd.",Binzhou,Shandong,China,37.38923130000001,117.9684737,"TIANJIN XIN GANG, CN","QINGDAO GANG, CN"
Le Belier S.A.,Verac,Aquitaine,France,44.991267,-0.340678,"LA ROCHELLE, FR","ROTTERDAM, NL"
HUTCHINSON S.A.,Paris,IDF,France,48.8727568,2.2999602,"LA ROCHELLE, FR","ROTTERDAM, NL"
Faurecia S.A.,Nanterre,IDF,France,48.8869681,2.2155504,"LA ROCHELLE, FR","ROTTERDAM, NL"
Montupet S.A.,Clichy,IDF,France,48.9124585,2.3142216,"LA ROCHELLE, FR","ROTTERDAM, NL"
ZF Friedrichshafen AG,Friedrichshafen,BW,Germany,47.6617648,9.4800113,"HAMBURG, DE","ROTTERDAM, NL"
Hirschvogel Automotive Group (Hirschvogel Holding GmbH),Denklingen,BY,Germany,47.9139271,10.8490461,"HAMBURG, DE","ROTTERDAM, NL"
Samvardhana Motherson Peguform (Formerly Peguform GmbH &amp; Co. KG),Botzingen,BW,Germany,48.0696129,7.718409800000001,"HAMBURG, DE","ROTTERDAM, NL"
Knorr-Bremse AG,Munich,BY,Germany,48.1800923,11.5497532,"HAMBURG, DE","ROTTERDAM, NL"
OSRAM Licht AG,Munich,BY,Germany,48.1865394,11.585399,"HAMBURG, DE","ROTTERDAM, NL"
ElringKlinger AG,Dettingen an der Erms,BW,Germany,48.527536,9.3488325,"HAMBURG, DE","ROTTERDAM, NL"
J. Eberspaecher GmbH &amp; Co. KG,Esslingen,BW,Germany,48.7271837,9.3526316,"HAMBURG, DE","ROTTERDAM, NL"
Samvardhana Motherson Reflectec (Formerly Visiocorp plc),Stuttgart,BW,Germany,48.7758013,9.2529132,"HAMBURG, DE","ROTTERDAM, NL"
Bosch [Robert Bosch GmbH],Gerlingen,BW,Germany,48.7885453,9.063613799999999,"HAMBURG, DE","ROTTERDAM, NL"
MANN+HUMMEL GmbH,Ludwigsburg,BW,Germany,48.8883519,9.2093353,"HAMBURG, DE","ROTTERDAM, NL"
Alfmeier Praezision AG,Treuchtlingen,BY,Germany,48.9595158,10.9096442,"HAMBURG, DE","ROTTERDAM, NL"
GETRAG,Untergruppenbach,BW,Germany,49.0913259,9.2760275,"HAMBURG, DE","ROTTERDAM, NL"
KSPG AG (Formerly Kolbenschmidt Pierburg AG),Neckarsulm,BW,Germany,49.1922581,9.228708899999999,"HAMBURG, DE","ROTTERDAM, NL"
GRAMMER AG,Amberg,BY,Germany,49.4403198,11.8633445,"HAMBURG, DE","ROTTERDAM, NL"
Leoni AG,Nurnberg,BY,Germany,49.449102,11.0873543,"HAMBURG, DE","ROTTERDAM, NL"
Gebr. Roechling KG,Mannheim,BW,Germany,49.4764407,8.4930737,"HAMBURG, DE","ROTTERDAM, NL"
Freudenberg &amp; Co. KG,Weinheim,BW,Germany,49.544964,8.660270299999999,"HAMBURG, DE","ROTTERDAM, NL"
Brose Fahrzeugteile GmbH &amp; Co. KG,Coburg,BY,Germany,50.2612094,10.962695,"HAMBURG, DE","ROTTERDAM, NL"
Woco Industrietechnik GmbH,Bad Soden-Salmunster,HE,Germany,50.2741053,9.3721825,"HAMBURG, DE","ROTTERDAM, NL"
Emitec Gesellschaft fuer Emissionstechnologie mbH,Lohmar,NRW,Germany,50.8378015,7.212664900000001,"HAMBURG, DE","ROTTERDAM, NL"
Deutz AG,Cologne,NRW,Germany,50.9093945,7.0486698,"HAMBURG, DE","ROTTERDAM, NL"
OTTO FUCHS KG,Meinerzhagen,NRW,Germany,51.1052543,7.650938399999999,"HAMBURG, DE","ROTTERDAM, NL"
Leopold Kostal GmbH &amp; Co. KG,Ludenscheid,NRW,Germany,51.2264872,7.678827699999999,"HAMBURG, DE","ROTTERDAM, NL"
Kiekert AG,Heiligenhaus,NRW,Germany,51.3273148,6.965595899999999,"HAMBURG, DE","ROTTERDAM, NL"
HELLA KGaA Hueck &amp; Co.,Lippstadt,NRW,Germany,51.6712278,8.3406481,"HAMBURG, DE","ROTTERDAM, NL"
Borgers AG,Bocholt,NRW,Germany,51.8446261,6.645786,"HAMBURG, DE","ROTTERDAM, NL"
Continental AG,Hanover,NDS,Germany,52.4042924,9.7256773,"HAMBURG, DE","ROTTERDAM, NL"
Draexlmaier Group (Fritz Draexlmaier GmbH &amp; Co. KG),Vilsbiburg,BY,Germany,48.45092020000001,12.3525868,"HAMBURG, DE","ROTTERDAM, NL"
Mahle GmbH,Stuttgart,BW,Germany,48.82035339999999,9.203193899999999,"HAMBURG, DE","ROTTERDAM, NL"
Edscha AG,Remscheid,NRW,Germany,51.19382969999999,7.200955899999999,"HAMBURG, DE","ROTTERDAM, NL"
ThyssenKrupp AG,Essen,NRW,Germany,51.46279209999999,6.9787572,"HAMBURG, DE","ROTTERDAM, NL"
Bharat Forge Ltd.,Pune,MH,India,18.5332622,73.9370923,"JAWAHARLAL NEHRU PORT (NHAVA SHIVA), IN",
PT. Astra Otoparts Tbk,North Jakarta City,Special Capital Region of Jakarta,Indonesia,-6.160725999999999,106.9152021,"JAKARTA, ID",
Teksid S.p.A.,Carmagnola,Piemonte,Italy,44.85537,7.737719999999999,"GIOIA TAURO, IT","LA ROCHELLE, FR"
"Oerlikon Graziano S.p.A. (A division of Oerlikon Drive Systems, Oerlikon Group)",Rivoli,Piemonte,Italy,45.068701,7.544053900000001,"GIOIA TAURO, IT","LA ROCHELLE, FR"
Sogefi S.p.A.,Milano,Lombardia,Italy,45.4800003,9.1499908,"GIOIA TAURO, IT","LA ROCHELLE, FR"
Magneti Marelli Holding S.p.A.,Corbetta,Lombardia,Italy,45.4803823,8.9103728,"GIOIA TAURO, IT","LA ROCHELLE, FR"
FIAMM S.p.A.,Montecchio Maggiore-Alte Ceccato,Veneto,Italy,45.4986899,11.4200051,"GIOIA TAURO, IT","LA ROCHELLE, FR"
Pirelli Tyre S.p.A.,Milano,Lombardia,Italy,45.5194435,9.213426,"GIOIA TAURO, IT","LA ROCHELLE, FR"
Brembo S.p.A.,Curno,Lombardia,Italy,45.687267,9.59752,"GIOIA TAURO, IT","LA ROCHELLE, FR"
"Nishikawa Rubber Co., Ltd.",Hiroshima-shi,Hiroshima-ken,Japan,34.412881,132.4558832,"NAGOYA KO, JP","TOKYO KO, JP"
Fujitsu Ten Limited,Kobe-shi,Hyogo-ken,Japan,34.6603187,135.1644808,"NAGOYA KO, JP","TOKYO KO, JP"
JTEKT Corporation,Osaka,Osaka Prefecture,Japan,34.6762739,135.5045713,"NAGOYA KO, JP","TOKYO KO, JP"
"Sumitomo Rubber Industries, Ltd.",Kobe,Hyogo Prefecture,Japan,34.701174,135.2141287,"NAGOYA KO, JP","TOKYO KO, JP"
"Musashi Seimitsu Industry Co., Ltd.",Toyohashi-shi,Aichi-ken,Japan,34.7054561,137.3577324,"NAGOYA KO, JP","TOKYO KO, JP"
Ahresty Corp.,Toyohashi,Aichi Prefecture,Japan,34.7121307,137.4620346,"NAGOYA KO, JP","TOKYO KO, JP"
"Fuji Kiko Co., Ltd.",Kosai,Shizuoka Prefecture,Japan,34.7153137,137.5426692,"NAGOYA KO, JP","TOKYO KO, JP"
EXEDY Corporation,Neyagawa-shi,Osaka-fu,Japan,34.7537999,135.6238533,"NAGOYA KO, JP","TOKYO KO, JP"
Yasunaga Corporation,Iga,Mie Prefecture,Japan,34.7613647,136.1452166,"NAGOYA KO, JP","TOKYO KO, JP"
Asahi Tec Corporation,Kikugawa,Shizuoka Prefecture,Japan,34.7633652,138.0857866,"NAGOYA KO, JP","TOKYO KO, JP"
HI-LEX Corporation,Takarazuka,Hyogo Prefecture,Japan,34.8095135,135.3434045,"NAGOYA KO, JP","TOKYO KO, JP"
SHIROKI Corporation,Toyokawa-shi,Aichi-ken,Japan,34.8518765,137.3874233,"NAGOYA KO, JP","TOKYO KO, JP"
"ROKI Co., Ltd.",Hamamatsu,Shizuoka Prefecture,Japan,34.8624773,137.8106327,"NAGOYA KO, JP","TOKYO KO, JP"
OTICS Corporation,Nishio-shi,Aichi-ken,Japan,34.8671233,137.0116571,"NAGOYA KO, JP","TOKYO KO, JP"
"Aisin AI Co., Ltd.",Nishio,Aichi Prefecture,Japan,34.8844587,137.091156,"NAGOYA KO, JP","TOKYO KO, JP"
"Aisin AW Co., Ltd.",Anjo,Aichi Prefecture,Japan,34.9050509,137.0714698,"NAGOYA KO, JP","TOKYO KO, JP"
"Sumitomo Wiring Systems, Ltd.",Yokkaichi-shi,Mie-ken,Japan,34.9657537,136.6192462,"NAGOYA KO, JP","TOKYO KO, JP"
"Futaba Industrial Co., Ltd.",Okazaki-shi,Aichi-ken,Japan,34.9888868,137.1241811,"NAGOYA KO, JP","TOKYO KO, JP"
Toyota Boshoku Corporation,Kariya-shi,Aichi-ken,Japan,34.9927324,137.0023206,"NAGOYA KO, JP","TOKYO KO, JP"
Denso Corporation,Kariya,Aichi Prefecture,Japan,34.9967042,137.006434,"NAGOYA KO, JP","TOKYO KO, JP"
"ADVICS CO., Ltd.",Kariya-shi,Aichi-ken,Japan,34.9991429,137.0114363,"NAGOYA KO, JP","TOKYO KO, JP"
"Aisin Seiki Co., Ltd.",Kariya-shi,Aichi-ken,Japan,35.0019204,137.014011,"NAGOYA KO, JP","TOKYO KO, JP"
Aska Corporation,Kariya,Aichi Prefecture,Japan,35.0222884,137.0285762,"NAGOYA KO, JP","TOKYO KO, JP"
"Aisin Takaoka Co., Ltd.",Toyota-shi,Aichi-ken,Japan,35.0264613,137.0705221,"NAGOYA KO, JP","TOKYO KO, JP"
"Aisan Industry Co., Ltd.",Obu-shi,Aichi-ken,Japan,35.0403334,136.9528266,"NAGOYA KO, JP","TOKYO KO, JP"
Aichi Steel Corporation,Tokai-shi,Aichi-ken,Japan,35.0445211,136.901874,"NAGOYA KO, JP","TOKYO KO, JP"
"Taiho Kogyo Co., Ltd",Toyota-shi,Aichi-ken,Japan,35.0639795,137.1453011,"NAGOYA KO, JP","TOKYO KO, JP"
"Nippon Gasket Co., Ltd.",Toyota,Aichi Prefecture,Japan,35.0659821,137.1455149,"NAGOYA KO, JP","TOKYO KO, JP"
"Chuo Spring Co., Ltd.",Nagoya-shi,Aichi-ken,Japan,35.0798374,136.9444134,"NAGOYA KO, JP","TOKYO KO, JP"
"Usui Kokusai Sangyo Kaisha, Ltd.",Sunto District,Shizuoka Prefecture,Japan,35.1055953,138.8902433,"NAGOYA KO, JP","TOKYO KO, JP"
"Aichi Machine Industry Co., Ltd.",Nagoya-shi,Aichi-ken,Japan,35.1334662,136.8958142,"NAGOYA KO, JP","TOKYO KO, JP"
"NGK Spark Plug Co., Ltd.",Nagoya-shi,Aichi-ken,Japan,35.1378641,136.9179703,"NAGOYA KO, JP","TOKYO KO, JP"
JATCO Ltd.,Fuji,Shizuoka Prefecture,Japan,35.1543052,138.7062779,"NAGOYA KO, JP","TOKYO KO, JP"
Inoac Corporation,Nagoya,Aichi Prefecture,Japan,35.1628927,136.8894995,"NAGOYA KO, JP","TOKYO KO, JP"
"Daido Metal Co., Ltd.",Nagoya,Aichi Prefecture,Japan,35.1673455,136.9042679,"NAGOYA KO, JP","TOKYO KO, JP"
"Owari Precise Products Co., Ltd.",Nagoya-shi,Aichi-ken,Japan,35.1949991,136.9469021,"NAGOYA KO, JP","TOKYO KO, JP"
Nifco Inc.,Yokosuka-shi,Kanagawa-ken,Japan,35.2257496,139.676486,"NAGOYA KO, JP","TOKYO KO, JP"
"Toyoda Gosei Co., Ltd.",Kiyosu-shi,Aichi-ken,Japan,35.2407455,136.8313869,"NAGOYA KO, JP","TOKYO KO, JP"
"Technol Eight Co., Ltd.",Seto,Aichi Prefecture,Japan,35.2426147,137.1084129,"NAGOYA KO, JP","TOKYO KO, JP"
"Nihon Plast Co., Ltd.",Fujinomiya,Shizuoka Prefecture,Japan,35.2593851,138.6244199,"NAGOYA KO, JP","TOKYO KO, JP"
"Sumitomo Riko Co., Ltd.(Formerly, Tokai Rubber Industries)",Komaki,Aichi Prefecture,Japan,35.2779259,136.9389025,"NAGOYA KO, JP","TOKYO KO, JP"
"Tokai Rika Co., Ltd.",Niwa-gun,Aichi-ken,Japan,35.3072885,136.8935664,"NAGOYA KO, JP","TOKYO KO, JP"
"Fine Sinter Co., Ltd.",Kasugai,Aichi Prefecture,Japan,35.3098623,137.0353118,"NAGOYA KO, JP","TOKYO KO, JP"
"Imasen Electric Industrial Co., Ltd.",Inuyama,Aichi Prefecture,Japan,35.3379639,136.9467625,"NAGOYA KO, JP","TOKYO KO, JP"
"NHK Spring Co., Ltd.",Yokohama,Kanagawa Prefecture,Japan,35.347077,139.6555582,"NAGOYA KO, JP","TOKYO KO, JP"
"Topura Co., Ltd.",Hadano,Kanagawa Prefecture,Japan,35.3753031,139.2410668,"NAGOYA KO, JP","TOKYO KO, JP"
"Ichikoh Industries, Ltd.",Isehara,Kanagawa Prefecture,Japan,35.4041513,139.2971112,"NAGOYA KO, JP","TOKYO KO, JP"
Mitsui Kinzoku ACT Corporation,Yokohama,Kanagawa Prefecture,Japan,35.4622889,139.6222899,"NAGOYA KO, JP","TOKYO KO, JP"
UNIPRES Corporation,Yokohama,Kanagawa Prefecture,Japan,35.5093945,139.615257,"NAGOYA KO, JP","TOKYO KO, JP"
"Ikuyo Co., Ltd.",Atsugi,Kanagawa Prefecture,Japan,35.5131673,139.3601523,"NAGOYA KO, JP","TOKYO KO, JP"
"Nikki Co., Ltd.",Atsugi,Kanagawa Prefecture,Japan,35.5131673,139.3601523,"NAGOYA KO, JP","TOKYO KO, JP"
SNT Corporation,Kawasaki,Kanagawa Prefecture,Japan,35.5253565,139.7034067,"NAGOYA KO, JP","TOKYO KO, JP"
"FALTEC Co., Ltd.",Kawasaki,Kanagawa Prefecture,Japan,35.5319029,139.6958822,"NAGOYA KO, JP","TOKYO KO, JP"
"TBK Co., Ltd.",Machida,Tokyo,Japan,35.5358672,139.4758402,"NAGOYA KO, JP","TOKYO KO, JP"
Pioneer Corporation,Kawasaki,Kanagawa Prefecture,Japan,35.541645,139.6739102,"NAGOYA KO, JP","TOKYO KO, JP"
"Harada Industry Co., Ltd.",Shinagawa,Tokyo,Japan,35.5929658,139.7345469,"NAGOYA KO, JP","TOKYO KO, JP"
"Alps Electric Co., Ltd.",Ota-ku,Tokyo-to,Japan,35.5938685,139.6809081,"NAGOYA KO, JP","TOKYO KO, JP"
"Alpine Electronics, Inc.",Shinagawa-ku,Tokyo-to,Japan,35.6258628,139.7230944,"TOKYO KO, JP","NAGOYA KO, JP"
"IJT Technology Holdings Co., Ltd.",Minato,Tokyo,Japan,35.6312684,139.7498754,"TOKYO KO, JP","NAGOYA KO, JP"
"Stanley Electric Co., Ltd.",Meguro,Tokyo,Japan,35.6398411,139.7035485,"TOKYO KO, JP","NAGOYA KO, JP"
"Nippon Sheet Glass Co., Ltd.",Minato-ku,Tokyo-to,Japan,35.6436251,139.7421172,"TOKYO KO, JP","NAGOYA KO, JP"
"Sanoh Industrial Co., Ltd.",Shibuya,Tokyo,Japan,35.6469712,139.7186136,"TOKYO KO, JP","NAGOYA KO, JP"
"Hitachi Metals, Ltd.",Minato-ku,Tokyo-to,Japan,35.6499275,139.7569101,"TOKYO KO, JP","NAGOYA KO, JP"
Yazaki Corporation,Minato-ku,Tokyo-to,Japan,35.6527435,139.7444028,"TOKYO KO, JP","NAGOYA KO, JP"
"Kayaba Industry Co., Ltd. (KYB)",Minato-ku,Tokyo-to,Japan,35.6562073,139.7565739,"TOKYO KO, JP","NAGOYA KO, JP"
U-SHIN LTD.,Minato,Tokyo,Japan,35.6568544,139.7536241,"TOKYO KO, JP","NAGOYA KO, JP"
NOK Corporation,Minato-ku,Tokyo-to,Japan,35.6578793,139.7529963,"TOKYO KO, JP","NAGOYA KO, JP"
Bosch [Bosch Corporation],Shibuya-ku,Tokyo-to,Japan,35.657889,139.7058617,"TOKYO KO, JP","NAGOYA KO, JP"
"Eagle Industry Co., Ltd.",Minato,Tokyo,Japan,35.657932,139.7529991,"TOKYO KO, JP","NAGOYA KO, JP"
"The Yokohama Rubber Co., Ltd.",Minato-ku,Tokyo-to,Japan,35.6630814,139.7528489,"TOKYO KO, JP","NAGOYA KO, JP"
"Shin-Kobe Electric Machinery Co., Ltd.",Chuo,Tokyo,Japan,35.6677926,139.7771084,"TOKYO KO, JP","NAGOYA KO, JP"
"Yanagawa Seiki Co., Ltd.",Fuchu,Tokyo,Japan,35.6702317,139.4813999,"TOKYO KO, JP","NAGOYA KO, JP"
Bridgestone Corporation,Chuo-ku,Tokyo-to,Japan,35.6760414,139.7687448,"TOKYO KO, JP","NAGOYA KO, JP"
"TPR Co., Ltd.",Chiyoda,Tokyo,Japan,35.6766524,139.7651227,"TOKYO KO, JP","NAGOYA KO, JP"
"T.RAD Co., Ltd.",Shibuya,Tokyo,Japan,35.6779389,139.69224,"TOKYO KO, JP","NAGOYA KO, JP"
"Hitachi Chemical Co., Ltd.",Chiyoda-ku,Tokyo-to,Japan,35.6786466,139.7673837,"TOKYO KO, JP","NAGOYA KO, JP"
"Furukawa Electric Co., Ltd.",Chiyoda-ku,Tokyo-to,Japan,35.6801324,139.7625672,"TOKYO KO, JP","NAGOYA KO, JP"
Mitsubishi Electric Corporation,Chiyoda-ku,Tokyo-to,Japan,35.6801713,139.7625645,"TOKYO KO, JP","NAGOYA KO, JP"
Topre Corporation,Chuo,Tokyo,Japan,35.6807271,139.7737554,"TOKYO KO, JP","NAGOYA KO, JP"
Nabtesco Corporation,Chiyoda,Tokyo,Japan,35.6827287,139.7404687,"TOKYO KO, JP","NAGOYA KO, JP"
"Akebono Brake Industry Co., Ltd.",Chuo-ku,Tokyo-to,Japan,35.6845157,139.7787022,"TOKYO KO, JP","NAGOYA KO, JP"
"Hitachi Automotive Systems, Ltd.",Chiyoda,Tokyo,Japan,35.6858986,139.7684556,"TOKYO KO, JP","NAGOYA KO, JP"
Keihin Corporation,Shinjuku-ku,Tokyo-to,Japan,35.6930316,139.6954864,"TOKYO KO, JP","NAGOYA KO, JP"
Mikuni Corporation,Chiyoda,Tokyo,Japan,35.7009468,139.7696023,"TOKYO KO, JP","NAGOYA KO, JP"
"TACHI-S Co., Ltd.",Akishima,Tokyo,Japan,35.7155483,139.3468652,"TOKYO KO, JP","NAGOYA KO, JP"
MAHLE Filter Systems Japan Corporation,Toshima,Tokyo,Japan,35.7335499,139.7287997,"TOKYO KO, JP","NAGOYA KO, JP"
"TS TECH Co., Ltd.",Asaka,Saitama Prefecture,Japan,35.7891625,139.5980424,"TOKYO KO, JP","NAGOYA KO, JP"
"Teito Rubber Co., Ltd.",Iruma,Saitama Prefecture,Japan,35.8548791,139.3565787,"TOKYO KO, JP","NAGOYA KO, JP"
"Clarion Co., Ltd.",Saitama,Saitama Prefecture,Japan,35.8934138,139.6308654,"TOKYO KO, JP","NAGOYA KO, JP"
G-TEKT Corporation,Saitama,Saitama Prefecture,Japan,35.9074035,139.6181852,"TOKYO KO, JP","NAGOYA KO, JP"
"H-ONE Co., Ltd.",Saitama,Saitama Prefecture,Japan,35.9074035,139.6181852,"TOKYO KO, JP","NAGOYA KO, JP"
Calsonic Kansei Corporation,Saitama-shi,Saitama-ken,Japan,35.9361513,139.6093388,"TOKYO KO, JP","NAGOYA KO, JP"
F-TECH Inc.,Kuki,Saitama Prefecture,Japan,36.0592679,139.6315967,"TOKYO KO, JP","NAGOYA KO, JP"
SHOWA Corporation,Gyoda-shi,Saitama-ken,Japan,36.1462719,139.4901307,"TOKYO KO, JP","NAGOYA KO, JP"
"LEAD Co., Inc.",Kumagaya,Saitama Prefecture,Japan,36.2143664,139.3729306,"TOKYO KO, JP","NAGOYA KO, JP"
"Sawafuji Electric Co., Ltd.",Ota,Gunma Prefecture,Japan,36.2927105,139.2676689,"TOKYO KO, JP","NAGOYA KO, JP"
Sanden Corporation,Isesaki,Gunma Prefecture,Japan,36.3342168,139.1977356,"TOKYO KO, JP","NAGOYA KO, JP"
GKN Driveline Japan Ltd.,Tochigi,Tochigi Prefecture,Japan,36.403309,139.7517532,"TOKYO KO, JP","NAGOYA KO, JP"
"Ogura Clutch Co., Ltd.",Kiryu,Gunma Prefecture,Japan,36.4125286,139.3163611,"TOKYO KO, JP","NAGOYA KO, JP"
"Nippon Seiki Co., Ltd.",Nagaoka-shi,Niigata-ken,Japan,37.4699764,138.8555649,"TOKYO KO, JP","NAGOYA KO, JP"
TDF Corporation,Shibata District,Miyagi Prefecture,Japan,38.078804,140.7328721,"TOKYO KO, JP","NAGOYA KO, JP"
Murakami Corporation,Shizuoka,Shizuoka Prefecture,Japan,34.97377609999999,138.3887091,"TOKYO KO, JP","NAGOYA KO, JP"
Toyota Industries Corporation,Kariya-shi,Aichi-ken,Japan,34.99337939999999,136.9977599,"TOKYO KO, JP","NAGOYA KO, JP"
Kojima Industries Corporation,Toyota-shi,Aichi-ken,Japan,35.06733260000001,137.1567388,"TOKYO KO, JP","NAGOYA KO, JP"
Oiles Corporation,Fujisawa,Kanagawa Prefecture,Japan,35.39378749999999,139.4507081,"TOKYO KO, JP","NAGOYA KO, JP"
IAC (International Automotive Components) Group,Findel,Luxembourg,Luxembourg,49.6329143,6.2091053,"ROTTERDAM, NL","ANTWERPEN, BE"
Sapura Industrial Berhad,Bangi,Selangor,Malaysia,2.9523766,101.7838701,"PORT KLANG, MY",
"GRUPO KUO, S.A.B. de C.V. (Formerly DESC, SA. De CV)",Ciudad de Mexico,DF,Mexico,19.3873626,-99.2511351,"MANZANILLO, MX","VERACRUZ, MX"
Sanluis Corporation S.A.B. de C.V.,Mexico City,DF,Mexico,19.420556,-99.21888899999999,"MANZANILLO, MX","VERACRUZ, MX"
Inalfa Roof Systems Group B.V.,Venray,LI,Netherlands,51.5256257,5.9736992,"ROTTERDAM, NL","ANTWERPEN, BE"
Unick Corporation,Gimhae-si,Gyeongsangnam-do,South Korea,35.2857771,128.7717726,"PUSAN, KR",
EcoPlastic Corporation,Gyeongju-si,Gyeongsangbuk-do,South Korea,35.8561719,129.2247477,"PUSAN, KR",
"Hwashin Co., Ltd.",Yeongcheon-si,Gyeongsangbuk-do,South Korea,35.9883061,128.9681112,"PUSAN, KR",
"Austem Co., Ltd.",Cheonan-si,Chungcheongnam-do,South Korea,36.7367684,127.2852642,"PUSAN, KR",
"Hyundai Dymos, Inc.",Seosan-si,Chungcheongnam-do,South Korea,36.8338372,126.4749612,"PUSAN, KR",
"KB Autosys Co., Ltd. (Formerly Korea Beral Co., Ltd.)",Asan-si,Chungcheongnam-do,South Korea,36.8498786,127.012395,"PUSAN, KR",
"Hyundai Powertech Co., Ltd.",Seosan-si,Chungcheongnam-do,South Korea,36.8690304,126.4399316,"PUSAN, KR",
"Yoosung Enterprise Co., Ltd.",Asan-si,Chungcheongnam-do,South Korea,36.9220689,127.0677079,"PUSAN, KR",
Mando Corporation,Pyeongtaek-si,Gyeonggi-do,South Korea,36.9546448,126.8570809,"PUSAN, KR",
"Doowon Precision Indusrty Co., Ltd.",Anseong-si,Gyeonggi-do,South Korea,37.0360333,127.222428,"PUSAN, KR",
"Hyundai Autonet Co., Ltd.",Icheon-si,Gyeonggi-do,South Korea,37.260096,127.5008423,"PUSAN, KR",
"SJM Co., Ltd.",Ansan-si,Gyeonggi-do,South Korea,37.3077099,126.7779772,"PUSAN, KR",
"Daesung Electric Co., Ltd.",Ansan-si,Gyeonggi-do,South Korea,37.3104543,126.7871332,"PUSAN, KR",
"Daedong Co., Ltd.",Ansan-si,Gyeonggi-do,South Korea,37.314846,126.7592028,"PUSAN, KR",
"Sambo Auto Co., Ltd. (Formerly Hydrogen Power Co., Ltd.)",Ansan-si,Gyeonggi-do,South Korea,37.3186574,126.7657129,"PUSAN, KR",
"Inzi Controls Co., Ltd.",Siheung-si,Gyeonggi-do,South Korea,37.3342544,126.7222734,"PUSAN, KR",
Heesung Catalysts Corporation,Siheung-si,Gyeonggi-do,South Korea,37.3368206,126.7177816,"PUSAN, KR",
Hyundai Kefico Corporation,Gunpo-si,Gyeonggi-do,South Korea,37.3575915,126.9371109,"PUSAN, KR",
"Seojin Industrial Co., Ltd.",Gunpo-si,Gyeonggi-do,South Korea,37.3725155,126.9472915,"PUSAN, KR",
"Hwaseung R&amp;A Co., Ltd.",Yangsan-si,Gyeongsangnam-do,South Korea,35.41027589999999,129.0536,"PUSAN, KR",
"Ficosa International, S.A.",Barcelona,CT,Spain,41.3790881,2.1278398,"VALENCIA, ES","LA ROCHELLE, FR"
"ZANINI AUTO GRUP, S.A.",Parets del Valles,CT,Spain,41.5636447,2.2288957,"VALENCIA, ES","LA ROCHELLE, FR"
"Grupo Antolin-Irausa, S.A.",Burgos,CL,Spain,42.3439925,-3.696906,"VALENCIA, ES","LA ROCHELLE, FR"
"CIE Automotive, S.A.",Bilbao,Vizcaya,Spain,43.267052,-2.9358471,"VALENCIA, ES","LA ROCHELLE, FR"
Trelleborg AB,Trelleborg,Skane County,Sweden,55.3762427,13.1574231,"ANTWERPEN, BE","ROTTERDAM, NL"
Haldex AB,Landskrona,Skane County,Sweden,55.8703477,12.8300802,"ANTWERPEN, BE","ROTTERDAM, NL"
AB SKF,Gothenburg,Vastra Gotaland County,Sweden,57.70887,11.97456,"ANTWERPEN, BE","ROTTERDAM, NL"
"Autoliv, Inc.",Stockholm,Stockholm County,Sweden,59.32932349999999,18.0685808,"ANTWERPEN, BE","ROTTERDAM, NL"
Hoerbiger Holding AG,Zug,ZG,Switzerland,47.1745887,8.513854,"ROTTERDAM, NL","HAMBURG, DE"
Autoneum Holding Ltd. (Formerly Rieter Automotive),Winterthur,ZH,Switzerland,47.4875152,8.705355899999999,"ROTTERDAM, NL","HAMBURG, DE"
Georg Fischer AG,Schaffhausen,SH,Switzerland,47.7077664,8.641442399999999,"ROTTERDAM, NL","HAMBURG, DE"
TE Connectivity Ltd. (Formerly Tyco Electronics Ltd.),Schaffhausen,SH,Switzerland,47.7114176,8.626544899999999,"ROTTERDAM, NL","HAMBURG, DE"
TI Automotive Limited,Oxford,England,United Kingdom,51.7520209,-1.2577263,"FELIXSTOWE, GB","LA ROCHELLE, FR"
Exide Technologies,Milton,GA,United States,34.1321631,-84.30066599999999,,
"Superior Industries International, Inc.",Los Angeles,CA,United States,34.1898566,-118.451357,,
"International Textile Group, Inc.",Greensboro,NC,United States,36.1046869,-79.8128649,,
"Bridgestone Americas, Inc.",Nashville,TN,United States,36.1410253,-86.67118169999999,,
Gibbs Die Casting Corporation,Henderson,KY,United States,37.8361538,-87.59001339999999,,
"Cummins, Inc.",Columbus,IN,United States,39.2035687,-85.92303989999999,,
Gates Corporation,Denver,CO,United States,39.7541032,-105.0002242,,
"Remy International, Inc.",Pendleton,IN,United States,39.9975414,-85.7466439,,
Flex-N-Gate Corporation,Urbana,IL,United States,40.1105875,-88.2072697,,
"Alcoa, Inc.",New York,NY,United States,40.7593941,-73.9697795,NEW YORK,
Honeywell International Inc.,Morristown,NJ,United States,40.7969521,-74.4796647,,
"Harman International Industries, Inc.",Stamford,CT,United States,41.0529585,-73.53879909999999,,
The Goodyear Tire &amp; Rubber Company,Akron,OH,United States,41.0695312,-81.4874519,,
"Stoneridge, Inc.",Warren,OH,United States,41.2375569,-80.81841659999999,,
"Shiloh Industries, Inc.",Valley City,OH,United States,41.2477743,-81.9207423,,
Eaton Corporation plc,Cleveland,OH,United States,41.4766201,-81.50477719999999,,
Parker-Hannifin Corporation,Cleveland,OH,United States,41.4932198,-81.46085599999999,,
Dana Holding Corporation,Maumee,OH,United States,41.5628294,-83.65382439999999,,
"The Marmon Group, LLC",Chicago,IL,United States,41.8834728,-87.6291268,,
"Littelfuse, Inc.",Chicago,IL,United States,41.993029,-87.81075609999999,,
Illinois Tool Works Inc.,Glenview,IL,United States,42.092172,-87.8205864,,
Visteon Corporation,Van Buren charter Township,MI,United States,42.2203171,-83.4838244,,
Tenneco Inc.,Lake Forest,IL,United States,42.2586342,-87.840625,,
TRW Automotive Holdings Corporation,Livonia,MI,United States,42.3691884,-83.3682539,,
Freudenberg-NOK Sealing Technologies,Plymouth charter Township,MI,United States,42.3735328,-83.5090381,,
"Metaldyne, LLC",Plymouth charter Township,MI,United States,42.3735328,-83.5090381,,
"American Axle &amp; Manufacturing Holdings, Inc.",Detroit,MI,United States,42.3840829,-83.04150779999999,,
"Tower International, Inc.",Livonia,MI,United States,42.4279422,-83.3682539,,
Gentherm Incorporated (Formerly Amerigon),Northville,MI,United States,42.4311464,-83.4832692,,
Federal-Mogul Holdings Corporation,Southfield,MI,United States,42.4620892,-83.2827093,,
Lear Corporation,Southfield,MI,United States,42.4620892,-83.2827093,,
"Dayco Products LLC (Division of  Mark IV Industries, Inc.)",Troy,MI,United States,42.5496035,-83.11127979999999,,
"Meritor, Inc.",Troy,MI,United States,42.5586572,-83.18097759999999,,
"Key Safety Systems, Inc.",Sterling Heights,MI,United States,42.6055433,-83.0683519,,
DURA Automotive Systems LLC.,Auburn Hills,MI,United States,42.666863,-83.22598599999999,,
BorgWarner Inc.,Auburn Hills,MI,United States,42.6875323,-83.2341028,,
Guardian Industries Corporation,Auburn Hills,MI,United States,42.6875323,-83.2341028,,
Modine Manufacturing Company,Racine,WI,United States,42.6964412,-87.80584019999999,,
Gentex Corporation,Zeeland,MI,United States,42.8125246,-86.01865099999999,,
Johnson Controls Inc.,Milwaukee,WI,United States,43.1272254,-87.94328370000001,,
Strattec Security Corporation,Milwaukee,WI,United States,43.1272254,-87.94328370000001,,
Nexteer Automotive Group Ltd.,Saginaw,MI,United States,43.4194699,-83.9508068,,
"Donaldson Company, Inc.",Minneapolis,MN,United States,44.8308157,-93.3086778,,
ITT Corporation,White Plains,NY,United States,41.03398620000001,-73.7629097,,
"Wolverine Advanced Materials, LLC",Dearborn,MI,United States,42.33827549999999,-83.1756188,,
Cooper-Standard Holdings Inc.,Novi,MI,United States,42.47198969999999,-83.4536844,,
Maxion Wheels [Hayes Lemmerz International Inc.],Novi,MI,United States,42.47198969999999,-83.4536844,,
Delphi Automotive PLC,Troy,MI,United States,42.59248669999999,-83.1756188,,