<?xml version="1.0" encoding="UTF-8" standalone="no"?>
<!DOCTYPE svg PUBLIC "-//W3C//DTD SVG 20010904//EN"
              "http://www.w3.org/TR/2001/REC-SVG-20010904/DTD/svg10.dtd">

<svg xmlns="http://www.w3.org/2000/svg"
     width="26.6633in" height="13.6511in"
     viewBox="0 0 1920 983">
  <path id="Unnamed #1"
        fill="none" stroke="black" stroke-width="1"
        d="M 1034.00,893.00
           C 1034.00,893.00 1055.00,862.00 1055.00,862.00
             1055.00,862.00 1082.00,836.00 1082.00,836.00
             1082.00,836.00 1122.00,819.00 1122.00,819.00
             1122.00,819.00 1153.00,818.00 1154.00,819.00
             1155.00,820.00 1165.00,823.00 1166.00,824.00
             1167.00,825.00 1184.00,827.00 1184.00,827.00
             1184.00,827.00 1209.00,827.00 1209.00,827.00
             1209.00,827.00 1239.00,830.00 1240.00,830.00
             1241.00,830.00 1283.00,830.00 1283.00,830.00
             1283.00,830.00 1313.00,827.00 1314.00,825.00
             1315.00,823.00 1318.00,796.00 1318.00,796.00
             1318.00,796.00 1315.00,716.00 1314.00,713.00
             1313.00,710.00 1305.00,686.00 1295.00,686.00
             1285.00,686.00 1240.00,678.00 1234.00,680.00
             1228.00,682.00 1218.00,694.00 1218.00,696.00
             1218.00,698.00 1215.00,711.00 1215.00,715.00
             1215.00,719.00 1214.00,744.00 1210.00,744.00
             1206.00,744.00 1183.00,741.00 1179.00,741.00
             1175.00,741.00 1162.00,729.00 1162.00,729.00
             1162.00,729.00 1191.00,696.00 1191.00,696.00
             1191.00,696.00 1182.00,641.00 1181.00,641.00
             1180.00,641.00 1154.00,626.00 1154.00,627.00
             1154.00,628.00 1132.00,629.00 1132.00,629.00
             1132.00,629.00 1120.00,602.00 1120.00,602.00
             1120.00,602.00 1098.00,595.00 1096.00,596.00
             1094.00,597.00 1072.00,604.00 1071.00,606.00
             1070.00,608.00 1034.00,605.00 1033.00,601.00
             1032.00,597.00 1040.00,576.00 1043.00,575.00
             1046.00,574.00 1084.00,569.00 1085.00,570.00
             1086.00,571.00 1130.00,572.00 1130.00,573.00
             1130.00,574.00 1171.00,573.00 1171.00,574.00
             1171.00,575.00 1225.00,574.00 1225.00,574.00
             1225.00,574.00 1238.00,587.00 1238.00,587.00
             1238.00,587.00 1238.00,606.00 1238.00,606.00
             1238.00,606.00 1251.00,616.00 1251.00,616.00
             1251.00,616.00 1265.00,616.00 1265.00,617.00
             1265.00,618.00 1284.00,623.00 1285.00,623.00
             1286.00,623.00 1314.00,626.00 1315.00,626.00
             1316.00,626.00 1324.00,599.00 1322.00,597.00
             1320.00,595.00 1307.00,581.00 1305.00,581.00
             1303.00,581.00 1285.00,579.00 1283.00,579.00
             1281.00,579.00 1271.00,576.00 1271.00,576.00
             1271.00,576.00 1263.00,553.00 1265.00,553.00
             1267.00,553.00 1256.00,511.00 1256.00,511.00
             1256.00,511.00 1279.00,487.00 1279.00,487.00
             1279.00,487.00 1322.00,478.00 1322.00,478.00
             1322.00,478.00 1347.00,452.00 1347.00,452.00
             1347.00,452.00 1325.00,415.00 1325.00,415.00
             1325.00,415.00 1307.00,371.00 1307.00,371.00
             1307.00,371.00 1337.00,362.00 1337.00,362.00
             1337.00,362.00 1358.00,400.00 1358.00,400.00
             1358.00,400.00 1346.00,416.00 1346.00,416.00
             1346.00,416.00 1321.00,432.00 1321.00,432.00
             1321.00,432.00 1300.00,433.00 1299.00,433.00
             1298.00,433.00 1284.00,407.00 1284.00,407.00
             1284.00,407.00 1284.00,387.00 1284.00,387.00
             1284.00,387.00 1294.00,377.00 1294.00,377.00
             1294.00,377.00 1292.00,354.00 1292.00,354.00
             1292.00,354.00 1282.00,343.00 1280.00,343.00
             1278.00,343.00 1256.00,329.00 1256.00,329.00
             1256.00,329.00 1257.00,306.00 1257.00,306.00
             1257.00,306.00 1284.00,302.00 1284.00,302.00
             1284.00,302.00 1305.00,311.00 1305.00,313.00
             1305.00,315.00 1292.00,332.00 1292.00,332.00
             1292.00,332.00 1258.00,349.00 1258.00,350.00
             1258.00,351.00 1227.00,347.00 1226.00,347.00
             1225.00,347.00 1217.00,257.00 1217.00,257.00
             1217.00,257.00 1213.00,215.00 1213.00,215.00
             1213.00,215.00 1195.00,209.00 1195.00,209.00
             1195.00,209.00 1074.00,208.00 1074.00,208.00
             1074.00,208.00 1073.00,228.00 1073.00,230.00
             1073.00,232.00 1073.00,255.00 1073.00,258.00
             1073.00,261.00 1074.00,297.00 1074.00,302.00
             1074.00,307.00 1074.00,337.00 1074.00,340.00
             1074.00,343.00 1074.00,374.00 1075.00,377.00
             1076.00,380.00 1077.00,394.00 1076.00,401.00
             1075.00,408.00 1072.00,421.00 1071.00,424.00
             1070.00,427.00 1056.00,427.00 1051.00,427.00
             1046.00,427.00 1033.00,406.00 1034.00,405.00
             1035.00,404.00 1035.00,364.00 1035.00,363.00
             1035.00,362.00 1035.00,312.00 1035.00,311.00
             1035.00,310.00 1032.00,276.00 1032.00,276.00
             1032.00,276.00 1033.00,244.00 1033.00,243.00
             1033.00,242.00 1034.00,221.00 1034.00,221.00
             1034.00,221.00 1013.00,217.00 1011.00,217.00
             1009.00,217.00 1003.00,233.00 1003.00,236.00
             1003.00,239.00 1003.00,262.00 1003.00,270.00
             1003.00,278.00 1003.00,304.00 1003.00,312.00
             1003.00,320.00 1003.00,348.00 1004.00,353.00
             1005.00,358.00 1005.00,383.00 1005.00,388.00
             1005.00,393.00 1004.00,420.00 1004.00,423.00
             1004.00,426.00 1003.00,446.00 1003.00,448.00
             1003.00,450.00 1003.00,462.00 1003.00,466.00
             1003.00,470.00 1001.00,483.00 999.00,486.00
             997.00,489.00 987.00,498.00 985.00,498.00
             983.00,498.00 969.00,497.00 968.00,495.00
             967.00,493.00 965.00,488.00 965.00,484.00
             965.00,480.00 966.00,455.00 966.00,452.00
             966.00,449.00 967.00,371.00 967.00,370.00
             967.00,369.00 966.00,315.00 966.00,313.00
             966.00,311.00 964.00,288.00 964.00,286.00
             964.00,284.00 964.00,232.00 964.00,232.00
             964.00,232.00 953.00,211.00 952.00,211.00
             951.00,211.00 923.00,215.00 923.00,218.00
             923.00,221.00 926.00,234.00 927.00,245.00
             928.00,256.00 928.00,276.00 928.00,287.00
             928.00,298.00 927.00,298.00 927.00,313.00
             927.00,328.00 927.00,324.00 927.00,340.00
             927.00,356.00 928.00,377.00 928.00,388.00
             928.00,399.00 928.00,437.00 928.00,443.00
             928.00,449.00 928.00,477.00 928.00,485.00
             928.00,493.00 928.00,508.00 928.00,519.00
             928.00,530.00 929.00,544.00 929.00,550.00
             929.00,556.00 929.00,568.00 929.00,577.00
             929.00,586.00 901.00,612.00 900.00,611.00
             899.00,610.00 890.00,595.00 890.00,592.00
             890.00,589.00 886.00,520.00 886.00,520.00
             886.00,520.00 887.00,473.00 887.00,472.00
             887.00,471.00 887.00,429.00 887.00,428.00
             887.00,427.00 888.00,391.00 888.00,391.00
             888.00,391.00 890.00,358.00 890.00,358.00
             890.00,358.00 896.00,405.00 896.00,410.00
             896.00,415.00 894.00,431.00 894.00,435.00
             894.00,439.00 894.00,464.00 893.00,469.00
             892.00,474.00 893.00,501.00 893.00,504.00
             893.00,507.00 895.00,543.00 895.00,543.00
             895.00,543.00 885.00,611.00 885.00,611.00
             885.00,611.00 865.00,614.00 865.00,614.00
             865.00,614.00 841.00,614.00 839.00,614.00
             837.00,614.00 811.00,614.00 809.00,618.00
             807.00,622.00 803.00,635.00 803.00,639.00
             803.00,643.00 805.00,657.00 805.00,660.00
             805.00,663.00 805.00,672.00 805.00,673.00
             805.00,674.00 806.00,680.00 806.00,683.00
             806.00,686.00 813.00,689.00 820.00,697.00
             827.00,705.00 826.00,698.00 831.00,715.00
             836.00,732.00 854.00,766.00 855.00,771.00
             856.00,776.00 851.00,773.00 862.00,792.00
             873.00,811.00 862.00,792.00 883.00,822.00
             904.00,852.00 903.00,848.00 912.00,864.00
             921.00,880.00 934.00,883.00 934.00,885.00
             934.00,887.00 950.00,904.00 952.00,911.00
             954.00,918.00 951.00,920.00 955.00,931.00" />
  <path id="Unnamed"
        fill="none" stroke="black" stroke-width="1"
        d="M 929.00,837.00
           C 929.00,837.00 879.00,784.00 879.00,783.00
             879.00,782.00 898.00,700.00 900.00,694.00
             902.00,688.00 993.00,586.00 993.00,586.00
             993.00,586.00 1055.00,543.00 1056.00,543.00
             1057.00,543.00 1225.00,483.00 1225.00,483.00
             1225.00,483.00 1232.00,355.00 1232.00,355.00
             1232.00,355.00 1240.00,255.00 1240.00,254.00
             1240.00,253.00 1225.00,204.00 1225.00,204.00
             1225.00,204.00 1129.00,196.00 1128.00,197.00
             1127.00,198.00 1047.00,201.00 1046.00,202.00
             1045.00,203.00 1035.00,237.00 1035.00,238.00
             1035.00,239.00 1037.00,318.00 1036.00,324.00
             1035.00,330.00 1034.00,404.00 1034.00,407.00
             1034.00,410.00 1036.00,454.00 1036.00,454.00
             1036.00,454.00 1018.00,466.00 1016.00,468.00
             1014.00,470.00 997.00,431.00 997.00,431.00
             997.00,431.00 1001.00,367.00 1001.00,367.00
             1001.00,367.00 1002.00,234.00 1002.00,234.00
             1002.00,234.00 987.00,207.00 987.00,207.00
             987.00,207.00 968.00,205.00 967.00,207.00
             966.00,209.00 954.00,223.00 954.00,224.00
             954.00,225.00 959.00,235.00 960.00,235.00
             961.00,235.00 966.00,258.00 966.00,259.00
             966.00,260.00 956.00,277.00 956.00,278.00
             956.00,279.00 967.00,300.00 967.00,300.00
             967.00,300.00 958.00,342.00 958.00,342.00
             958.00,342.00 962.00,378.00 962.00,379.00
             962.00,380.00 961.00,412.00 961.00,413.00
             961.00,414.00 961.00,470.00 961.00,471.00
             961.00,472.00 961.00,509.00 961.00,509.00
             961.00,509.00 958.00,533.00 955.00,532.00
             952.00,531.00 933.00,534.00 933.00,534.00
             933.00,534.00 931.00,496.00 931.00,495.00
             931.00,494.00 934.00,371.00 934.00,371.00
             934.00,371.00 934.00,291.00 933.00,291.00
             932.00,291.00 923.00,225.00 923.00,225.00
             923.00,225.00 897.00,213.00 895.00,217.00
             893.00,221.00 892.00,234.00 892.00,237.00
             892.00,240.00 897.00,306.00 897.00,315.00
             897.00,324.00 897.00,393.00 896.00,402.00
             895.00,411.00 893.00,496.00 893.00,501.00
             893.00,506.00 892.00,561.00 892.00,562.00
             892.00,563.00 891.00,608.00 891.00,608.00
             891.00,608.00 873.00,600.00 873.00,600.00
             873.00,600.00 861.00,602.00 861.00,602.00
             861.00,602.00 843.00,581.00 843.00,580.00
             843.00,579.00 847.00,532.00 847.00,531.00
             847.00,530.00 848.00,491.00 848.00,485.00
             848.00,479.00 849.00,430.00 849.00,428.00
             849.00,426.00 847.00,365.00 847.00,364.00
             847.00,363.00 855.00,344.00 855.00,344.00
             855.00,344.00 857.00,356.00 857.00,356.00
             857.00,356.00 859.00,386.00 859.00,386.00
             859.00,386.00 862.00,441.00 862.00,442.00
             862.00,443.00 859.00,477.00 859.00,477.00
             859.00,477.00 859.00,517.00 859.00,517.00
             859.00,517.00 847.00,305.00 847.00,305.00
             847.00,305.00 850.00,262.00 850.00,262.00
             850.00,262.00 847.00,229.00 847.00,229.00
             847.00,229.00 829.00,219.00 829.00,219.00
             829.00,219.00 819.00,232.00 819.00,232.00
             819.00,232.00 818.00,245.00 818.00,248.00
             818.00,251.00 824.00,327.00 824.00,328.00
             824.00,329.00 822.00,438.00 822.00,438.00
             822.00,438.00 823.00,526.00 823.00,526.00
             823.00,526.00 822.00,590.00 822.00,590.00" />
</svg>
