location	id	x	y	lat	lon	timestamp	rotate_lat	rotate_lon	A	B	C	D
SN01101	1	545	667	37.80204377	-122.4028368	1443122667	37.8017663	-122.4028721	4	5	2	3
SN01085	2	650	648	37.80206781	-122.4028423	1443122667	37.80177065	-122.4028418	1	3	5	4
SN01083	3	650	443	37.80206781	-122.4029016	1443122667	37.80181758	-122.4028418	5	5	1	4
SN01086	4	650	278	37.80206781	-122.4029493	1443122667	37.80185536	-122.4028418	1	3	5	3
SN01107	5	650	217	37.80206781	-122.402967	1443122667	37.80186932	-122.4028418	2	5	2	4
SN01070	6	443	178	37.80202042	-122.4029782	1443122667	37.80187825	-122.4029016	3	1	5	4
SN01074	7	443	298	37.80202042	-122.4029435	1443122667	37.80185078	-122.4029016	3	4	1	2
SN01090	8	443	434	37.80202042	-122.4029042	1443122667	37.80181964	-122.4029016	3	3	3	4
SN01068	9	443	648	37.80202042	-122.4028423	1443122667	37.80177065	-122.4029016	5	1	5	5
SN01073	10	551	0	37.80204514	-122.4030297	1443122667	37.801919	-122.4028704	1	2	3	1
SN01082	11	348	72	37.80199867	-122.4030089	1443122667	37.80190252	-122.4029291	1	4	3	5
SN01075	12	288	72	37.80198493	-122.4030089	1443122667	37.80190252	-122.4029464	5	4	1	3
SN01089	13	78	72	37.80193686	-122.4030089	1443122667	37.80190252	-122.4030071	3	5	1	1
SN01103	14	96	296	37.80194098	-122.4029441	1443122667	37.80185123	-122.4030019	1	4	4	1
SN01077	15	273	296	37.8019815	-122.4029441	1443122667	37.80185123	-122.4029508	4	3	1	3
SN01080	16	196	170	37.80196387	-122.4029805	1443122667	37.80188008	-122.402973	1	1	4	4
SN01104	17	545	492	37.80204377	-122.4028874	1443122667	37.80180636	-122.4028721	1	1	5	5
SN01087	18	545	360	37.80204377	-122.4029256	1443122667	37.80183658	-122.4028721	2	5	4	1
SN01076	19	545	226	37.80204377	-122.4029644	1443122667	37.80186726	-122.4028721	3	3	2	1
SN01048	20	615	36	37.8020598	-122.4030193	1443122667	37.80191076	-122.4028519	2	5	3	4
SN01106	21	296	194	37.80198677	-122.4029736	1443122667	37.80187459	-122.4029441	1	3	4	3